…
demog_nocorona__nobirth_summary <- 
    demog_corona_nobirth %>% 
    group_by(year) %>% 
    summarise(num_death = sum(num_people*death_rate), population = sum(num_people)) %>%
    mutate(annual_death_rate = num_death/population)



demog_nocorona__nobirth_summary %>% mutate(tot_years_ahead = cumsum(population), years_ahead = tot_years_ahead/population)
```

```
## # A tibble: 102 x 6
##     year num_death population annual_death_rate tot_years_ahead years_ahead
##    <dbl>     <dbl>      <dbl>             <dbl>           <dbl>       <dbl>
##  1     0   706995.  66427385             0.0106       66427385         1   
##  2     1  1282768.  65018395.            0.0197      131445780.        2.02
##  3     2   655764.  64377011.            0.0102      195822792.        3.04
##  4     3   666060.  63721247.            0.0105      259544039.        4.07
##  5     4   678118.  63055187.            0.0108      322599226.        5.12
##  6     5   688522.  62377069.            0.0110      384976295.        6.17
##  7     6   700713.  61688546.            0.0114      446664841.        7.24
##  8     7   711403.  60987834.            0.0117      507652675.        8.32
##  9     8   720390.  60276431.            0.0120      567929105.        9.42
## 10     9   733087.  59556041.            0.0123      627485147.       10.5 
## # ... with 92 more rows
```
